url,phone,business_name,status_text,email,website_link
https://www.yellowpages.com/columbus-oh/mip/browns-roofing-507697325?lid=1001901238451,(614) 837-3280,Brown's Roofing,"OPEN NOW,Today: Open 24 Hours",mailto:browns.roofing@yahoo.com,http://www.brownsroofingcolumbus.com
https://www.yellowpages.com/columbus-oh/mip/sears-home-improvement-532496754?lid=1001235406980,(614) 342-2890,Sears Home Improvement,"OPEN NOW,Today: 8:00 am - 12:00 am",,https://www.searshomeservices.com/improve/roofing-replacement?SID=5304&PID=11&utm_source=iyp&utm_medium=iyp&utm_campaign=Roofing
https://www.yellowpages.com/nationwide/mip/the-home-depot-roofing-475009362?lid=1001905298162&ctn=20d642dd367ebc86f793b803472d480f630b4ef77aa0a8d5461af099d16ea46741a0a54d87d051b002989602ab9415a2,(866) 814-4482,The Home Depot Roofing,"OPEN NOW,Today: 7:00 am - 11:00 pm",,http://local.yp.com/Listings/Details.aspx?NUM=a%3a12909167%3a13%3a4859924%3a14%3a0%3a7
https://www.yellowpages.com/grove-city-oh/mip/a-i-s-renovations-ltd-461513811?lid=1000229141933,(614) 878-9388,A.I.S. Renovations LTD,"OPEN NOW,Today: 9:00 am - 6:00 pm",mailto:russellh9@aol.com,http://www.aisrenovations.com
https://www.yellowpages.com/columbus-oh/mip/apco-roofing-472167259?lid=1001901238453,(614) 583-2726,APCO Roofing,"CLOSED NOW,Today: 7:30 am - 5:00 pm",mailto:centralohiopharmacist@gmail.com,http://www.apco.com/?_vsrefdom=ypads&utm_source=yellowpages&utm_medium=ad&utm_campaign=yp-online-ads-2017
https://www.yellowpages.com/nationwide/mip/loyal-roofing-524809745?lid=1001690199893,(855) 882-1332,Loyal Roofing,"OPEN NOW,Today: Open 24 Hours",,
https://www.yellowpages.com/columbus-oh/mip/j-f-bakers-sons-roofing-inc-1958753?lid=1001734257969,(614) 297-7663,J. F. Baker's Sons Roofing Inc,"CLOSED NOW,Today: 8:00 am - 5:00 pm",mailto:jfbakerssons@sbcglobal.net,http://jfbakerroofing.com
https://www.yellowpages.com/columbus-oh/mip/allied-roofing-15401633?lid=1001879638023,(614) 902-3198,Allied Roofing,"CLOSED NOW,Today: 8:00 am - 4:30 pm,Tomorrow: Closed",mailto:officemanager@alliedroofinginc.com,http://www.alliedroofinginc.com/
https://www.yellowpages.com/columbus-oh/mip/apco-windows-462337634?lid=1001901238452,(614) 583-2726,APCO Windows,"CLOSED NOW,Today: 7:30 am - 5:00 pm",mailto:materialsales@apco.com,https://www.apco.com/windows/?_vsrefdom=ypads&utm_source=yellowpages&utm_medium=ad&utm_campaign=yp-online-ads-2017
https://www.yellowpages.com/columbus-oh/mip/eric-t-close-gen-cntrctng-500154190?lid=1001455290324,(614) 893-4676,Eric T Close Gen Cntrctng,,mailto:erictclose@gmail.com,http://local.yp.com/Listings/Details.aspx?NUM=a%3a13114257%3a13%3a4859924%3a14%3a0%3a7
https://www.yellowpages.com/columbus-oh/mip/american-vinyl-8229115?lid=1000405369258,(614) 460-7443,American Vinyl,"CLOSED NOW,Today: 8:00 am - 5:00 pm,Tomorrow: 8:00 am - 12:30 pm",mailto:quality@american-vinyl.com,http://www.american-vinyl.com
https://www.yellowpages.com/nationwide/mip/the-home-depot-roofing-475009362?lid=1001905298162,(855) 299-8147,The Home Depot Roofing,"OPEN NOW,Today: 7:00 am - 11:00 pm",,http://local.yp.com/Listings/Details.aspx?NUM=a%3a12909167%3a13%3a4859924%3a14%3a0%3a7
https://www.yellowpages.com/columbus-oh/mip/apco-gutters-downspouts-480839704?lid=1001783419762,(614) 583-2726,APCO Gutters & Downspouts,"CLOSED NOW,Today: 7:30 am - 5:00 pm",mailto:howardlauderback@apco.com,http://www.apco.com/gutters/?_vsrefdom=ypads&utm_source=yellowpages&utm_medium=ad&utm_campaign=yp-online-ads-2017
https://www.yellowpages.com/nationwide/mip/sears-home-improvements-roofing-equipment-supplies-480154480?lid=1000818097246,(888) 950-7282,Sears Home Improvements - Roofing Equipment & Supplies,"OPEN NOW,Today: 8:00 am - 12:00 am",,https://www.searshomeservices.com/improve/roofing-replacement?SID=5304&PID=11&utm_source=iyp&utm_medium=iyp&utm_campaign=Roofing
https://www.yellowpages.com/columbus-oh/mip/summit-building-and-roofing-530918214?lid=1001896104557,(614) 468-3748,Summit Building and Roofing,"OPEN NOW,Today: 7:00 am - 8:00 pm",mailto:jkear.summitbuilding@gmail.com,http://summitbuildingcompany.com
https://www.yellowpages.com/nationwide/mip/sears-home-improvements-roofing-contractors-480161507?lid=1000123041178,(888) 950-7282,Sears Home Improvements-Roofing Contractors,"OPEN NOW,Today: 8:00 am - 12:00 am",,https://www.searshomeservices.com/improve/roofing-replacement?SID=5304&PID=11&utm_source=iyp&utm_medium=iyp&utm_campaign=Roofing
https://www.yellowpages.com/thornville-oh/mip/midwest-roof-renovation-llc-487026055?lid=1001880565765,(740) 785-0772,Midwest Roof Renovation LLC.,,mailto:MidwestRoofllc@hotmail.com,http://www.midwestroofllc.com
https://www.yellowpages.com/columbus-oh/mip/alex-great-roofing-and-remodeling-inc-495958985?lid=1000444773481,(614) 314-3265,Alex Great Roofing and Remodeling Inc.,"OPEN NOW,Today: 7:00 am - 7:00 pm",mailto:info@alexgreatroofing.com,
https://www.yellowpages.com/columbus-oh/mip/arick-sons-insulation-roofing-5745919?lid=296273091,(614) 497-2002,Arick & Sons Insulation & Roofing,"CLOSED NOW,Today: 8:00 am - 5:00 pm,Tomorrow: 8:00 am - 12:00 pm",mailto:arickandsons@gmail.com,http://www.arickandsonsinsulation.com
https://www.yellowpages.com/columbus-oh/mip/f-f-home-improvement-co-504420316?lid=1001406599575,(614) 604-8497,F&F Home Improvement Co,"CLOSED NOW,Today: 10:00 am - 4:00 pm,Tomorrow: Closed",mailto:fandfhome23@yahoo.com,http://fandfhomeimprovement.com
https://www.yellowpages.com/plain-city-oh/mip/atlas-roof-exteriors-527188285?lid=1001511534341,(614) 763-6034,Atlas Roof & Exteriors,"OPEN NOW,Today: 8:00 am - 7:00 pm",mailto:clancy.malone@hotmail.com,http://www.atlasexteriors.com/
https://www.yellowpages.com/nationwide/mip/sears-home-improvements-roofing-services-consultants-461535089?lid=1000818097296,(888) 950-7282,Sears Home Improvements - Roofing Services & Consultants,"OPEN NOW,Today: 8:00 am - 12:00 am",,https://www.searshomeservices.com/improve/roofing-replacement?SID=5304&PID=11&utm_source=iyp&utm_medium=iyp&utm_campaign=Roofing
https://www.yellowpages.com/columbus-oh/mip/all-pro-gutters-and-downspouts-522403447?lid=1001823133025,(614) 695-3425,All pro gutters and downspouts,,,
https://www.yellowpages.com/columbus-oh/mip/midwest-heating-cooling-5604911?lid=1001856870381,(614) 636-6519,Midwest Heating & Cooling,,mailto:midwest@beol.net,http://www.Midwest-Contractor.com
https://www.yellowpages.com/columbus-oh/mip/baker-dick-roofing-inc-1857715?lid=1001575834451,(614) 364-4501,Baker Dick Roofing Inc,"CLOSED NOW,Today: 9:00 am - 5:00 pm",,http://dickbakerroofing.com
https://www.yellowpages.com/columbus-oh/mip/donley-gutter-co-ltd-10821002?lid=1000552687087,(614) 902-3503,Donley Gutter Co LTD,"OPEN NOW,Today: 8:00 am - 6:00 pm",mailto:donleygutter@ameritech.net,http://www.donleygutters.com
https://www.yellowpages.com/columbus-oh/mip/d-w-ranney-sons-inc-2104949?lid=1001009809065,(614) 279-6377,D W Ranney & Sons Inc,"CLOSED NOW,Today: 7:00 am - 4:30 pm,Tomorrow: Closed",mailto:info@dwranneyandsons.com,http://www.dwranneyandsons.com
https://www.yellowpages.com/columbus-oh/mip/sterner-jerry-llc-8349973?lid=217820384,(614) 362-0415,Sterner Jerry LLC,"CLOSED NOW,Today: 9:00 am - 5:00 pm",,http://www.jerryssterner.com
https://www.yellowpages.com/columbus-oh/mip/apco-siding-455828520?lid=1001478983894,(614) 583-2726,APCO Siding,"CLOSED NOW,Today: 7:30 am - 5:00 pm",,https://www.apco.com/siding/?_vsrefdom=ypads&utm_source=yellowpages&utm_medium=ad&utm_campaign=yp-online-ads-2017
https://www.yellowpages.com/columbus-oh/mip/advantage-roofing-siding-534103049?lid=1001840960839,(614) 410-3344,Advantage Roofing & Siding,,,
https://www.yellowpages.com/columbus-oh/mip/arrow-roofing-16415763?lid=1001766159372,(614) 706-1081,Arrow Roofing,"CLOSED NOW,Today: 8:00 am - 5:00 pm,Tomorrow: 8:00 am - 5:00 pm",mailto:arrowroofinginc@gmail.com,http://www.arrowohio.com
url,phone,business_name,status_text,email,website_link
https://www.yellowpages.com/columbus-oh/mip/browns-roofing-507697325?lid=1001901238451,(614) 837-3280,Brown's Roofing,"OPEN NOW,Today: Open 24 Hours",mailto:browns.roofing@yahoo.com,http://www.brownsroofingcolumbus.com
https://www.yellowpages.com/columbus-oh/mip/american-vinyl-8229115?lid=1000405369258,(614) 460-7443,American Vinyl,"CLOSED NOW,Today: 8:00 am - 5:00 pm,Tomorrow: 8:00 am - 12:30 pm",mailto:quality@american-vinyl.com,http://www.american-vinyl.com
https://www.yellowpages.com/columbus-oh/mip/sterner-jerry-llc-8349973?lid=217820384,(614) 362-0415,Sterner Jerry LLC,"CLOSED NOW,Today: 9:00 am - 5:00 pm",,http://www.jerryssterner.com
https://www.yellowpages.com/thornville-oh/mip/midwest-roof-renovation-llc-487026055?lid=1001880565765,(740) 785-0772,Midwest Roof Renovation LLC.,,mailto:MidwestRoofllc@hotmail.com,http://www.midwestroofllc.com
https://www.yellowpages.com/columbus-oh/mip/summit-building-and-roofing-530918214?lid=1001896104557,(614) 468-3748,Summit Building and Roofing,"OPEN NOW,Today: 7:00 am - 8:00 pm",mailto:jkear.summitbuilding@gmail.com,http://summitbuildingcompany.com
https://www.yellowpages.com/columbus-oh/mip/allied-roofing-15401633?lid=1001879638023,(614) 902-3198,Allied Roofing,"CLOSED NOW,Today: 8:00 am - 4:30 pm,Tomorrow: Closed",mailto:officemanager@alliedroofinginc.com,http://www.alliedroofinginc.com/
https://www.yellowpages.com/nationwide/mip/the-home-depot-roofing-475009362?lid=1001905298162&ctn=20d642dd367ebc86f793b803472d480f630b4ef77aa0a8d5461af099d16ea46741a0a54d87d051b002989602ab9415a2,(866) 814-4482,The Home Depot Roofing,"OPEN NOW,Today: 7:00 am - 11:00 pm",,http://local.yp.com/Listings/Details.aspx?NUM=a%3a12909167%3a13%3a4859924%3a14%3a0%3a7
https://www.yellowpages.com/columbus-oh/mip/apco-roofing-472167259?lid=1001901238453,(614) 583-2726,APCO Roofing,"CLOSED NOW,Today: 7:30 am - 5:00 pm",mailto:centralohiopharmacist@gmail.com,http://www.apco.com/?_vsrefdom=ypads&utm_source=yellowpages&utm_medium=ad&utm_campaign=yp-online-ads-2017
https://www.yellowpages.com/grove-city-oh/mip/a-i-s-renovations-ltd-461513811?lid=1000229141933,(614) 878-9388,A.I.S. Renovations LTD,"CLOSED NOW,Today: 9:00 am - 6:00 pm,Tomorrow: Closed",mailto:russellh9@aol.com,http://www.aisrenovations.com
https://www.yellowpages.com/columbus-oh/mip/baker-dick-roofing-inc-1857715?lid=1001575834451,(614) 364-4501,Baker Dick Roofing Inc,"CLOSED NOW,Today: 9:00 am - 5:00 pm",,http://dickbakerroofing.com
https://www.yellowpages.com/columbus-oh/mip/apco-roofing-472167259?lid=1001901238453,(614) 583-2726,APCO Roofing,"CLOSED NOW,Today: 7:30 am - 5:00 pm",mailto:centralohiopharmacist@gmail.com,http://www.apco.com/?_vsrefdom=ypads&utm_source=yellowpages&utm_medium=ad&utm_campaign=yp-online-ads-2017
https://www.yellowpages.com/columbus-oh/mip/midwest-heating-cooling-5604911?lid=1001856870381,(614) 636-6519,Midwest Heating & Cooling,,mailto:midwest@beol.net,http://www.Midwest-Contractor.com
https://www.yellowpages.com/columbus-oh/mip/advantage-roofing-siding-534103049?lid=1001840960839,(614) 410-3344,Advantage Roofing & Siding,,,
https://www.yellowpages.com/thornville-oh/mip/midwest-roof-renovation-llc-487026055?lid=1001880565765,(740) 785-0772,Midwest Roof Renovation LLC.,,mailto:MidwestRoofllc@hotmail.com,http://www.midwestroofllc.com
https://www.yellowpages.com/columbus-oh/mip/sears-home-improvement-532496754?lid=1001235406980,(614) 342-2890,Sears Home Improvement,"OPEN NOW,Today: 8:00 am - 12:00 am",,https://www.searshomeservices.com/improve/roofing-replacement?SID=5304&PID=11&utm_source=iyp&utm_medium=iyp&utm_campaign=Roofing
https://www.yellowpages.com/nationwide/mip/loyal-roofing-524809745?lid=1001690199893,(855) 882-1332,Loyal Roofing,"OPEN NOW,Today: Open 24 Hours",,
https://www.yellowpages.com/columbus-oh/mip/arrow-roofing-16415763?lid=1001766159372,(614) 706-1081,Arrow Roofing,"CLOSED NOW,Today: 8:00 am - 5:00 pm,Tomorrow: 8:00 am - 5:00 pm",mailto:arrowroofinginc@gmail.com,http://www.arrowohio.com
https://www.yellowpages.com/grove-city-oh/mip/a-i-s-renovations-ltd-461513811?lid=1000229141933,(614) 878-9388,A.I.S. Renovations LTD,"CLOSED NOW,Today: 9:00 am - 6:00 pm,Tomorrow: Closed",mailto:russellh9@aol.com,http://www.aisrenovations.com
https://www.yellowpages.com/nationwide/mip/the-home-depot-roofing-475009362?lid=1001905298162,(855) 299-8147,The Home Depot Roofing,"OPEN NOW,Today: 7:00 am - 11:00 pm",,http://local.yp.com/Listings/Details.aspx?NUM=a%3a12909167%3a13%3a4859924%3a14%3a0%3a7
https://www.yellowpages.com/nationwide/mip/sears-home-improvements-roofing-equipment-supplies-480154480?lid=1000818097246,(888) 950-7282,Sears Home Improvements - Roofing Equipment & Supplies,"OPEN NOW,Today: 8:00 am - 12:00 am",,https://www.searshomeservices.com/improve/roofing-replacement?SID=5304&PID=11&utm_source=iyp&utm_medium=iyp&utm_campaign=Roofing
https://www.yellowpages.com/nationwide/mip/loyal-roofing-524809745?lid=1001690199893,(855) 882-1332,Loyal Roofing,"OPEN NOW,Today: Open 24 Hours",,
https://www.yellowpages.com/nationwide/mip/sears-home-improvements-roofing-services-consultants-461535089?lid=1000818097296,(888) 950-7282,Sears Home Improvements - Roofing Services & Consultants,"OPEN NOW,Today: 8:00 am - 12:00 am",,https://www.searshomeservices.com/improve/roofing-replacement?SID=5304&PID=11&utm_source=iyp&utm_medium=iyp&utm_campaign=Roofing
https://www.yellowpages.com/columbus-oh/mip/alex-great-roofing-and-remodeling-inc-495958985?lid=1000444773481,(614) 314-3265,Alex Great Roofing and Remodeling Inc.,"OPEN NOW,Today: 7:00 am - 7:00 pm",mailto:info@alexgreatroofing.com,
https://www.yellowpages.com/columbus-oh/mip/donley-gutter-co-ltd-10821002?lid=1000552687087,(614) 902-3503,Donley Gutter Co LTD,"CLOSED NOW,Today: 8:00 am - 6:00 pm,Tomorrow: Closed",mailto:donleygutter@ameritech.net,http://www.donleygutters.com
https://www.yellowpages.com/columbus-oh/mip/all-pro-gutters-and-downspouts-522403447?lid=1001823133025,(614) 695-3425,All pro gutters and downspouts,,,
https://www.yellowpages.com/columbus-oh/mip/f-f-home-improvement-co-504420316?lid=1001406599575,(614) 604-8497,F&F Home Improvement Co,"CLOSED NOW,Today: 10:00 am - 4:00 pm,Tomorrow: Closed",mailto:fandfhome23@yahoo.com,http://fandfhomeimprovement.com
https://www.yellowpages.com/plain-city-oh/mip/atlas-roof-exteriors-527188285?lid=1001511534341,(614) 763-6034,Atlas Roof & Exteriors,"OPEN NOW,Today: 8:00 am - 7:00 pm",mailto:clancy.malone@hotmail.com,http://www.atlasexteriors.com/
https://www.yellowpages.com/columbus-oh/mip/arick-sons-insulation-roofing-5745919?lid=296273091,(614) 497-2002,Arick & Sons Insulation & Roofing,"CLOSED NOW,Today: 8:00 am - 5:00 pm,Tomorrow: 8:00 am - 12:00 pm",mailto:arickandsons@gmail.com,http://www.arickandsonsinsulation.com
https://www.yellowpages.com/nationwide/mip/sears-home-improvements-roofing-contractors-480161507?lid=1000123041178,(888) 950-7282,Sears Home Improvements-Roofing Contractors,"OPEN NOW,Today: 8:00 am - 12:00 am",,https://www.searshomeservices.com/improve/roofing-replacement?SID=5304&PID=11&utm_source=iyp&utm_medium=iyp&utm_campaign=Roofing
https://www.yellowpages.com/columbus-oh/mip/d-w-ranney-sons-inc-2104949?lid=1001009809065,(614) 279-6377,D W Ranney & Sons Inc,"CLOSED NOW,Today: 7:00 am - 4:30 pm,Tomorrow: Closed",mailto:info@dwranneyandsons.com,http://www.dwranneyandsons.com
https://www.yellowpages.com/columbus-oh/mip/j-f-bakers-sons-roofing-inc-1958753?lid=1001734257969,(614) 297-7663,J. F. Baker's Sons Roofing Inc,"CLOSED NOW,Today: 8:00 am - 5:00 pm",mailto:jfbakerssons@sbcglobal.net,http://jfbakerroofing.com
https://www.yellowpages.com/columbus-oh/mip/summit-building-and-roofing-530918214?lid=1001896104557,(614) 468-3748,Summit Building and Roofing,"OPEN NOW,Today: 7:00 am - 8:00 pm",mailto:jkear.summitbuilding@gmail.com,http://summitbuildingcompany.com
https://www.yellowpages.com/columbus-oh/mip/allied-roofing-15401633?lid=1001879638023,(614) 902-3198,Allied Roofing,"CLOSED NOW,Today: 8:00 am - 4:30 pm,Tomorrow: Closed",mailto:officemanager@alliedroofinginc.com,http://www.alliedroofinginc.com/
https://www.yellowpages.com/columbus-oh/mip/browns-roofing-507697325?lid=1001901238451,(614) 837-3280,Brown's Roofing,"OPEN NOW,Today: Open 24 Hours",mailto:browns.roofing@yahoo.com,http://www.brownsroofingcolumbus.com
https://www.yellowpages.com/columbus-oh/mip/apco-windows-462337634?lid=1001901238452,(614) 583-2726,APCO Windows,"CLOSED NOW,Today: 7:30 am - 5:00 pm",mailto:materialsales@apco.com,https://www.apco.com/windows/?_vsrefdom=ypads&utm_source=yellowpages&utm_medium=ad&utm_campaign=yp-online-ads-2017
https://www.yellowpages.com/columbus-oh/mip/eric-t-close-gen-cntrctng-500154190?lid=1001455290324,(614) 893-4676,Eric T Close Gen Cntrctng,,mailto:erictclose@gmail.com,http://local.yp.com/Listings/Details.aspx?NUM=a%3a13114257%3a13%3a4859924%3a14%3a0%3a7
https://www.yellowpages.com/columbus-oh/mip/apco-siding-455828520?lid=1001478983894,(614) 583-2726,APCO Siding,"CLOSED NOW,Today: 7:30 am - 5:00 pm",,https://www.apco.com/siding/?_vsrefdom=ypads&utm_source=yellowpages&utm_medium=ad&utm_campaign=yp-online-ads-2017
https://www.yellowpages.com/columbus-oh/mip/apco-gutters-downspouts-480839704?lid=1001783419762,(614) 583-2726,APCO Gutters & Downspouts,"CLOSED NOW,Today: 7:30 am - 5:00 pm",mailto:howardlauderback@apco.com,http://www.apco.com/gutters/?_vsrefdom=ypads&utm_source=yellowpages&utm_medium=ad&utm_campaign=yp-online-ads-2017
